{
    "name": "Elicoin",
    "symbol": "ELI",
    "algorithm": "yescryptr16",
    "site": "https://elicoin.net/",
    "blockExplorer": {
        "block": "http://block-explorer.com/block/",
        "tx": "http://block-explorer.com/tx/",
        "address": "http://block-explorer.com/address/"
    },
    "node": {
        "magic": "fbc0b6db",
        "testnetMagic": "fcc1b7dc"
    }
}
